time,Channel.V,Channel_V,Outflow_Q,Polder_Inflow_Q,violation_Channel.V_Channel.V_min_Channel.V_max
2013-01-01 01:00:00,400.000000,400.000000,0.225000,-0.000000,0.999800
2013-01-01 02:00:00,480.041968,480.041968,0.450000,0.472234,nan
2013-01-01 03:00:00,497.078340,497.078340,0.450000,0.454732,nan
2013-01-01 04:00:00,499.706997,499.706997,0.450000,0.450730,nan
2013-01-01 05:00:00,500.134436,500.134436,0.450000,0.450119,nan
2013-01-01 06:00:00,500.217539,500.217539,0.450000,0.450023,nan
2013-01-01 07:00:00,500.241642,500.241642,0.450000,0.450007,nan
2013-01-01 08:00:00,500.254832,500.254832,0.450000,0.450004,nan
2013-01-01 09:00:00,500.266012,500.266012,0.450000,0.450003,nan
2013-01-01 10:00:00,500.276978,500.276978,0.450000,0.450003,nan
2013-01-01 11:00:00,500.288127,500.288127,0.450000,0.450003,nan
2013-01-01 12:00:00,500.299563,500.299563,0.450000,0.450003,nan
2013-01-01 13:00:00,500.311327,500.311327,0.450000,0.450003,nan
2013-01-01 14:00:00,500.323444,500.323444,0.450000,0.450003,nan
2013-01-01 15:00:00,500.335940,500.335940,0.450000,0.450003,nan
2013-01-01 16:00:00,500.348837,500.348837,0.450000,0.450004,nan
2013-01-01 17:00:00,500.362163,500.362163,0.450000,0.450004,nan
2013-01-01 18:00:00,500.375943,500.375943,0.450000,0.450004,nan
2013-01-01 19:00:00,500.390206,500.390206,0.450000,0.450004,nan
2013-01-01 20:00:00,500.404983,500.404983,0.450000,0.450004,nan
2013-01-01 21:00:00,500.420305,500.420305,0.450000,0.450004,nan
2013-01-01 22:00:00,500.436207,500.436207,0.450000,0.450004,nan
2013-01-01 23:00:00,500.452725,500.452725,0.450000,0.450005,nan
2013-01-02 00:00:00,500.469895,500.469895,0.450000,0.450005,nan
2013-01-02 01:00:00,500.487757,500.487757,0.450000,0.450005,nan
2013-01-02 02:00:00,500.506353,500.506353,0.450000,0.450005,nan
2013-01-02 03:00:00,500.525723,500.525723,0.450000,0.450005,nan
2013-01-02 04:00:00,500.545911,500.545911,0.450000,0.450006,nan
2013-01-02 05:00:00,500.566958,500.566958,0.450000,0.450006,nan
2013-01-02 06:00:00,500.588902,500.588902,0.450000,0.450006,nan
2013-01-02 07:00:00,500.611778,500.611778,0.450000,0.450006,nan
2013-01-02 08:00:00,500.635613,500.635613,0.450000,0.450007,nan
2013-01-02 09:00:00,500.660416,500.660416,0.450000,0.450007,nan
2013-01-02 10:00:00,500.686176,500.686176,0.450000,0.450007,nan
2013-01-02 11:00:00,500.712843,500.712843,0.450000,0.450007,nan
2013-01-02 12:00:00,500.740306,500.740306,0.450000,0.450008,nan
2013-01-02 13:00:00,500.768358,500.768358,0.450000,0.450008,nan
2013-01-02 14:00:00,500.796633,500.796633,0.450000,0.450008,nan
2013-01-02 15:00:00,500.824499,500.824499,0.450000,0.450008,nan
2013-01-02 16:00:00,500.850893,500.850893,0.450000,0.450007,nan
2013-01-02 17:00:00,500.874173,500.874173,0.450000,0.450006,nan
2013-01-02 18:00:00,500.892760,500.892760,0.450000,0.450005,nan
2013-01-02 19:00:00,500.911426,500.911426,0.450000,0.450005,nan
2013-01-02 20:00:00,500.980208,500.980208,0.450000,0.450019,nan
2013-01-02 21:00:00,501.410903,501.410903,0.450000,0.450120,nan
2013-01-02 22:00:00,503.987106,503.987106,0.450000,0.450716,nan
2013-01-02 23:00:00,519.099966,519.099966,0.450000,0.454198,nan
2013-01-03 00:00:00,600.000000,600.000000,0.450000,0.472475,0.999991
