<?xml version="1.0" encoding="UTF-8" standalone="no"?>
<svg
   xmlns:dc="http://purl.org/dc/elements/1.1/"
   xmlns:cc="http://creativecommons.org/ns#"
   xmlns:rdf="http://www.w3.org/1999/02/22-rdf-syntax-ns#"
   xmlns:svg="http://www.w3.org/2000/svg"
   xmlns="http://www.w3.org/2000/svg"
   viewBox="0 0 253.552 65.57373"
   height="65.57373"
   width="253.552"
   xml:space="preserve"
   id="svg2"
   version="1.1"><metadata
     id="metadata8"><rdf:RDF><cc:Work
         rdf:about=""><dc:format>image/svg+xml</dc:format><dc:type
           rdf:resource="http://purl.org/dc/dcmitype/StillImage" /></cc:Work></rdf:RDF></metadata><defs
     id="defs6"><clipPath
       id="clipPath30"
       clipPathUnits="userSpaceOnUse"><path
         id="path28"
         d="M 0,49.18 H 190.164 V 0 H 0 Z" /></clipPath></defs><g
     transform="matrix(1.3333333,0,0,-1.3333333,0,65.573733)"
     id="g10"><g
       transform="translate(67.3382,36.7497)"
       id="g12"><path
         id="path14"
         style="fill:#231f20;fill-opacity:1;fill-rule:nonzero;stroke:none"
         d="M 0,0 H 2.852 L 2.846,-25.599 H 0 Z" /></g><g
       transform="translate(70.1685,25.1607)"
       id="g16"><path
         id="path18"
         style="fill:#231f20;fill-opacity:1;fill-rule:nonzero;stroke:none"
         d="m 0,0 10.959,11.589 h 3.385 L 3.4,0.081 15.465,-14.025 H 11.75 Z" /></g><g
       transform="translate(86.8231,36.7497)"
       id="g20"><path
         id="path22"
         style="fill:#231f20;fill-opacity:1;fill-rule:nonzero;stroke:none"
         d="M 0,0 H 2.878 L 2.882,-25.609 H 0 Z" /></g><g
       id="g24"><g
         clip-path="url(#clipPath30)"
         id="g26"><g
           transform="translate(104.0003,25.3598)"
           id="g32"><path
             id="path34"
             style="fill:#231f20;fill-opacity:1;fill-rule:nonzero;stroke:none"
             d="m 0,0 c 1.643,-0.711 3.031,-1.713 3.865,-2.889 0.834,-1.176 1.265,-2.505 1.265,-4.11 0,-2.352 -0.829,-4.352 -2.302,-5.789 -1.473,-1.438 -3.466,-2.081 -5.897,-2.081 -1.982,0 -3.695,0.476 -5.037,1.504 -1.341,1.03 -2.298,2.427 -2.768,4.322 l 2.724,0.907 c 0.365,-1.556 0.95,-2.322 1.791,-3.121 0.84,-0.8 2.01,-1.216 3.28,-1.216 1.499,0 2.836,0.466 3.761,1.345 0.927,0.88 1.457,1.975 1.457,3.568 0,1.141 -0.241,2.049 -0.875,2.905 -0.566,0.765 -1.643,1.67 -3.142,2.359 l -3.067,1.311 c -1.678,0.709 -3.006,1.544 -3.828,2.663 -0.821,1.117 -1.289,2.399 -1.289,3.959 0,1.816 0.627,3.375 1.957,4.562 1.33,1.187 3.21,1.869 5.274,1.869 1.514,0 2.8,-0.349 3.907,-1.001 1.106,-0.653 1.991,-1.593 2.61,-2.862 L 1.326,6.744 c 0,0 -0.859,1.409 -1.919,2.123 -0.565,0.402 -1.636,0.771 -2.515,0.771 -1.222,0 -2.225,-0.426 -3.052,-1.237 -0.714,-0.701 -0.939,-1.69 -0.939,-2.774 0,-0.908 0.414,-1.736 0.962,-2.4 0.547,-0.664 1.592,-1.255 2.747,-1.766 z" /></g><g
           transform="translate(173.2437,25.3246)"
           id="g36"><path
             id="path38"
             style="fill:#231f20;fill-opacity:1;fill-rule:nonzero;stroke:none"
             d="m 0,0 c 1.644,-0.711 3.03,-1.713 3.865,-2.889 0.834,-1.176 1.265,-2.506 1.265,-4.11 0,-2.352 -0.83,-4.352 -2.303,-5.79 -1.473,-1.438 -3.465,-2.08 -5.896,-2.08 -1.984,0 -3.694,0.476 -5.037,1.504 -1.341,1.029 -2.298,2.427 -2.768,4.321 l 2.722,0.908 c 0.368,-1.556 0.952,-2.322 1.794,-3.121 0.839,-0.8 2.01,-1.216 3.279,-1.216 1.498,0 2.836,0.465 3.762,1.345 0.926,0.88 1.455,1.975 1.455,3.568 0,1.14 -0.24,2.049 -0.874,2.904 -0.566,0.766 -1.644,1.671 -3.142,2.36 l -3.067,1.31 c -1.678,0.71 -3.007,1.543 -3.828,2.664 -0.821,1.117 -1.289,2.399 -1.289,3.959 0,1.816 0.626,3.374 1.956,4.562 1.33,1.187 3.211,1.868 5.274,1.868 1.516,0 2.801,-0.348 3.907,-1.001 C 2.181,10.414 3.067,9.473 3.686,8.205 L 1.325,6.744 c 0,0 -0.857,1.409 -1.917,2.123 C -1.159,9.268 -2.229,9.638 -3.108,9.638 -4.33,9.638 -5.334,9.211 -6.161,8.4 -6.874,7.7 -7.1,6.71 -7.1,5.627 c 0,-0.909 0.416,-1.737 0.963,-2.4 0.547,-0.664 1.592,-1.255 2.746,-1.768 z" /></g><g
           transform="translate(109.2569,36.7497)"
           id="g40"><path
             id="path42"
             style="fill:#231f20;fill-opacity:1;fill-rule:nonzero;stroke:none"
             d="M 0,0 H 17.493 V -2.752 H 10.244 V -25.628 H 7.294 L 7.293,-2.754 0.002,-2.749 Z" /></g><g
           transform="translate(128.934,36.7652)"
           id="g44"><path
             id="path46"
             style="fill:#231f20;fill-opacity:1;fill-rule:nonzero;stroke:none"
             d="M 0,0 H 13.445 L 13.442,-2.637 H 2.932 v -7.583 l 10.5,0.011 v -2.675 H 2.944 l 0.003,-10.079 h 10.485 v -2.688 H -0.014 Z" /></g><g
           transform="translate(148.8379,11.1143)"
           id="g48"><path
             id="path50"
             style="fill:#231f20;fill-opacity:1;fill-rule:nonzero;stroke:none"
             d="M 0,0 V 12.314 L 0.564,12.322 9.971,0 h 3.656 L 3.816,12.322 h 0.762 c 4.412,0 6.737,3.239 6.83,6.313 0.05,1.595 -0.777,6.956 -8.181,6.993 H -2.829 L -2.829,0 Z m 3.679,23.231 c 3.978,0 4.908,-3.088 4.908,-4.497 0,-1.368 -0.736,-4.329 -5.564,-4.329 -0.631,-0.005 -3.006,0 -3.006,0 l -0.011,8.826 z" /></g><g
           transform="translate(33.1662,36.8509)"
           id="g52"><path
             id="path54"
             style="fill:#231f20;fill-opacity:1;fill-rule:nonzero;stroke:none"
             d="m 0,0 h 9.813 l -19.986,-25.84 -9.792,0.001 z" /></g><g
           transform="translate(33.1662,36.8509)"
           id="g56"><path
             id="path58"
             style="fill:none;stroke:#231f20;stroke-width:0.148;stroke-linecap:butt;stroke-linejoin:miter;stroke-miterlimit:3.86400008;stroke-dasharray:none;stroke-opacity:1"
             d="m 0,0 h 9.813 l -19.986,-25.84 -9.792,0.001 z" /></g><g
           transform="translate(45.1831,36.8539)"
           id="g60"><path
             id="path62"
             style="fill:#231f20;fill-opacity:1;fill-rule:nonzero;stroke:none"
             d="m 0,0 h 9.827 l -9.878,-12.78 10.107,-13.066 -9.858,0.001 -10.09,13.049 z" /></g><g
           transform="translate(45.1831,36.8539)"
           id="g64"><path
             id="path66"
             style="fill:none;stroke:#231f20;stroke-width:0.148;stroke-linecap:butt;stroke-linejoin:miter;stroke-miterlimit:3.86400008;stroke-dasharray:none;stroke-opacity:1"
             d="m 0,0 h 9.827 l -9.878,-12.78 10.107,-13.066 -9.858,0.001 -10.09,13.049 z" /></g></g></g></g></svg>