<?xml version="1.0" encoding="UTF-8" standalone="no"?>
<!-- Created with Inkscape (http://www.inkscape.org/) -->

<svg
   xmlns:dc="http://purl.org/dc/elements/1.1/"
   xmlns:cc="http://creativecommons.org/ns#"
   xmlns:rdf="http://www.w3.org/1999/02/22-rdf-syntax-ns#"
   xmlns:svg="http://www.w3.org/2000/svg"
   xmlns="http://www.w3.org/2000/svg"
   xmlns:sodipodi="http://sodipodi.sourceforge.net/DTD/sodipodi-0.dtd"
   xmlns:inkscape="http://www.inkscape.org/namespaces/inkscape"
   width="180.29691mm"
   height="61.944279mm"
   viewBox="0 0 180.29691 61.94428"
   version="1.1"
   id="svg8"
   inkscape:version="0.92.3 (2405546, 2018-03-11)"
   sodipodi:docname="overview.svg">
  <defs
     id="defs2">
    <marker
       inkscape:isstock="true"
       style="overflow:visible"
       id="marker3193"
       refX="0"
       refY="0"
       orient="auto"
       inkscape:stockid="Arrow1Mend">
      <path
         transform="matrix(-0.4,0,0,-0.4,-4,0)"
         style="fill:#000000;fill-opacity:1;fill-rule:evenodd;stroke:#000000;stroke-width:1.00000003pt;stroke-opacity:1"
         d="M 0,0 5,-5 -12.5,0 5,5 Z"
         id="path3191"
         inkscape:connector-curvature="0" />
    </marker>
    <marker
       inkscape:isstock="true"
       style="overflow:visible"
       id="marker2275"
       refX="0"
       refY="0"
       orient="auto"
       inkscape:stockid="Arrow1Mstart">
      <path
         transform="matrix(0.4,0,0,0.4,4,0)"
         style="fill:#000000;fill-opacity:1;fill-rule:evenodd;stroke:#000000;stroke-width:1.00000003pt;stroke-opacity:1"
         d="M 0,0 5,-5 -12.5,0 5,5 Z"
         id="path2273"
         inkscape:connector-curvature="0" />
    </marker>
    <marker
       inkscape:stockid="Arrow1Mstart"
       orient="auto"
       refY="0"
       refX="0"
       id="Arrow1Mstart"
       style="overflow:visible"
       inkscape:isstock="true"
       inkscape:collect="always">
      <path
         id="path1965"
         d="M 0,0 5,-5 -12.5,0 5,5 Z"
         style="fill:#000000;fill-opacity:1;fill-rule:evenodd;stroke:#000000;stroke-width:1.00000003pt;stroke-opacity:1"
         transform="matrix(0.4,0,0,0.4,4,0)"
         inkscape:connector-curvature="0" />
    </marker>
    <marker
       inkscape:stockid="Arrow1Lend"
       orient="auto"
       refY="0"
       refX="0"
       id="Arrow1Lend"
       style="overflow:visible"
       inkscape:isstock="true">
      <path
         id="path1962"
         d="M 0,0 5,-5 -12.5,0 5,5 Z"
         style="fill:#000000;fill-opacity:1;fill-rule:evenodd;stroke:#000000;stroke-width:1.00000003pt;stroke-opacity:1"
         transform="matrix(-0.8,0,0,-0.8,-10,0)"
         inkscape:connector-curvature="0" />
    </marker>
  </defs>
  <sodipodi:namedview
     id="base"
     pagecolor="#ffffff"
     bordercolor="#666666"
     borderopacity="1.0"
     inkscape:pageopacity="0.0"
     inkscape:pageshadow="2"
     inkscape:zoom="1.4573593"
     inkscape:cx="226.31952"
     inkscape:cy="124.964"
     inkscape:document-units="mm"
     inkscape:current-layer="layer1"
     showgrid="true"
     inkscape:snap-object-midpoints="true"
     inkscape:snap-midpoints="true"
     fit-margin-top="0"
     fit-margin-left="0"
     fit-margin-right="0"
     fit-margin-bottom="0"
     inkscape:window-width="1920"
     inkscape:window-height="1001"
     inkscape:window-x="-9"
     inkscape:window-y="-9"
     inkscape:window-maximized="1">
    <inkscape:grid
       type="xygrid"
       id="grid817"
       originx="4.0877774"
       originy="-229.23906" />
  </sodipodi:namedview>
  <metadata
     id="metadata5">
    <rdf:RDF>
      <cc:Work
         rdf:about="">
        <dc:format>image/svg+xml</dc:format>
        <dc:type
           rdf:resource="http://purl.org/dc/dcmitype/StillImage" />
        <dc:title></dc:title>
      </cc:Work>
    </rdf:RDF>
  </metadata>
  <g
     inkscape:label="Layer 1"
     inkscape:groupmode="layer"
     id="layer1"
     transform="translate(4.0877764,-5.8166568)">
    <rect
       style="fill:#aa87de;stroke:#000000;stroke-width:0.28297481;stroke-miterlimit:4;stroke-dasharray:none;stroke-opacity:1"
       id="rect815-4-00"
       width="43.65625"
       height="7.7643151"
       x="67.46875"
       y="16.541666" />
    <rect
       style="fill:#aa87de;stroke:#000000;stroke-width:0.28297481;stroke-miterlimit:4;stroke-dasharray:none;stroke-opacity:1"
       id="rect815-4-3-7"
       width="43.65625"
       height="7.7643151"
       x="67.46875"
       y="32.416668" />
    <rect
       style="fill:#aa87de;stroke:#000000;stroke-width:0.28297481;stroke-miterlimit:4;stroke-dasharray:none;stroke-opacity:1"
       id="rect815-4"
       width="43.65625"
       height="7.7643151"
       x="2.6458333"
       y="5.9583335" />
    <ellipse
       style="fill:#ff6600;stroke:#000000;stroke-width:0.30000001;stroke-miterlimit:4;stroke-dasharray:none;stroke-opacity:1"
       id="path891-55"
       cx="6.0726523"
       cy="13.722647"
       rx="0.66145831"
       ry="1.3229166" />
    <ellipse
       style="fill:#ff6600;stroke:#000000;stroke-width:0.30000001;stroke-miterlimit:4;stroke-dasharray:none;stroke-opacity:1"
       id="path891-3-5"
       cx="11.364316"
       cy="13.722658"
       rx="0.66145831"
       ry="1.3229166" />
    <ellipse
       style="fill:#ff6600;stroke:#000000;stroke-width:0.30000001;stroke-miterlimit:4;stroke-dasharray:none;stroke-opacity:1"
       id="path891-2-9"
       cx="16.655989"
       cy="13.722658"
       rx="0.66145831"
       ry="1.3229166" />
    <ellipse
       style="fill:#ff6600;stroke:#000000;stroke-width:0.30000001;stroke-miterlimit:4;stroke-dasharray:none;stroke-opacity:1"
       id="path891-38-1"
       cx="21.947653"
       cy="13.722658"
       rx="0.66145831"
       ry="1.3229166" />
    <ellipse
       style="fill:#ff6600;stroke:#000000;stroke-width:0.30000001;stroke-miterlimit:4;stroke-dasharray:none;stroke-opacity:1"
       id="path891-7-8"
       cx="27.239325"
       cy="13.722658"
       rx="0.66145831"
       ry="1.3229166" />
    <ellipse
       style="fill:#ff6600;stroke:#000000;stroke-width:0.30000001;stroke-miterlimit:4;stroke-dasharray:none;stroke-opacity:1"
       id="path891-1-1"
       cx="32.530987"
       cy="13.722658"
       rx="0.66145831"
       ry="1.3229166" />
    <ellipse
       style="fill:#ff6600;stroke:#000000;stroke-width:0.30000001;stroke-miterlimit:4;stroke-dasharray:none;stroke-opacity:1"
       id="path891-5-8"
       cx="37.822659"
       cy="13.722658"
       rx="0.66145831"
       ry="1.3229166" />
    <ellipse
       style="fill:#ff6600;stroke:#000000;stroke-width:0.30000001;stroke-miterlimit:4;stroke-dasharray:none;stroke-opacity:1"
       id="path891-0-2"
       cx="43.114315"
       cy="13.722658"
       rx="0.66145831"
       ry="1.3229166" />
    <rect
       style="fill:#aa87de;stroke:#000000;stroke-width:0.28297481;stroke-miterlimit:4;stroke-dasharray:none;stroke-opacity:1"
       id="rect815-4-0"
       width="43.65625"
       height="7.7643151"
       x="2.6458333"
       y="24.479166" />
    <ellipse
       style="fill:#ff6600;stroke:#000000;stroke-width:0.30000001;stroke-miterlimit:4;stroke-dasharray:none;stroke-opacity:1"
       id="path891-55-8"
       cx="6.0726523"
       cy="32.243477"
       rx="0.66145831"
       ry="1.3229166" />
    <ellipse
       style="fill:#ff6600;stroke:#000000;stroke-width:0.30000001;stroke-miterlimit:4;stroke-dasharray:none;stroke-opacity:1"
       id="path891-3-5-5"
       cx="11.364316"
       cy="32.243488"
       rx="0.66145831"
       ry="1.3229166" />
    <ellipse
       style="fill:#ff6600;stroke:#000000;stroke-width:0.30000001;stroke-miterlimit:4;stroke-dasharray:none;stroke-opacity:1"
       id="path891-2-9-5"
       cx="16.655989"
       cy="32.243488"
       rx="0.66145831"
       ry="1.3229166" />
    <ellipse
       style="fill:#ff6600;stroke:#000000;stroke-width:0.30000001;stroke-miterlimit:4;stroke-dasharray:none;stroke-opacity:1"
       id="path891-38-1-6"
       cx="21.947676"
       cy="32.243488"
       rx="0.66145831"
       ry="1.3229166" />
    <ellipse
       style="fill:#ff6600;stroke:#000000;stroke-width:0.30000001;stroke-miterlimit:4;stroke-dasharray:none;stroke-opacity:1"
       id="path891-7-8-3"
       cx="27.239355"
       cy="32.243488"
       rx="0.66145831"
       ry="1.3229166" />
    <ellipse
       style="fill:#ff6600;stroke:#000000;stroke-width:0.30000001;stroke-miterlimit:4;stroke-dasharray:none;stroke-opacity:1"
       id="path891-1-1-8"
       cx="32.531017"
       cy="32.243488"
       rx="0.66145831"
       ry="1.3229166" />
    <ellipse
       style="fill:#ff6600;stroke:#000000;stroke-width:0.30000001;stroke-miterlimit:4;stroke-dasharray:none;stroke-opacity:1"
       id="path891-5-8-0"
       cx="37.822697"
       cy="32.243488"
       rx="0.66145831"
       ry="1.3229166" />
    <ellipse
       style="fill:#ff6600;stroke:#000000;stroke-width:0.30000001;stroke-miterlimit:4;stroke-dasharray:none;stroke-opacity:1"
       id="path891-0-2-2"
       cx="43.114346"
       cy="32.243488"
       rx="0.66145831"
       ry="1.3229166" />
    <rect
       style="fill:#aa87de;stroke:#000000;stroke-width:0.28297481;stroke-miterlimit:4;stroke-dasharray:none;stroke-opacity:1"
       id="rect815-4-3"
       width="43.65625"
       height="7.7643151"
       x="2.6458333"
       y="43" />
    <ellipse
       style="fill:#ff6600;stroke:#000000;stroke-width:0.30000001;stroke-miterlimit:4;stroke-dasharray:none;stroke-opacity:1"
       id="path891-55-2"
       cx="6.0726523"
       cy="24.570549"
       rx="0.66145831"
       ry="1.3229166" />
    <ellipse
       style="fill:#ff6600;stroke:#000000;stroke-width:0.30000001;stroke-miterlimit:4;stroke-dasharray:none;stroke-opacity:1"
       id="path891-3-5-2"
       cx="11.364316"
       cy="24.57056"
       rx="0.66145831"
       ry="1.3229166" />
    <ellipse
       style="fill:#ff6600;stroke:#000000;stroke-width:0.30000001;stroke-miterlimit:4;stroke-dasharray:none;stroke-opacity:1"
       id="path891-2-9-4"
       cx="16.655989"
       cy="24.57056"
       rx="0.66145831"
       ry="1.3229166" />
    <ellipse
       style="fill:#ff6600;stroke:#000000;stroke-width:0.30000001;stroke-miterlimit:4;stroke-dasharray:none;stroke-opacity:1"
       id="path891-38-1-63"
       cx="21.947676"
       cy="24.57056"
       rx="0.66145831"
       ry="1.3229166" />
    <ellipse
       style="fill:#ff6600;stroke:#000000;stroke-width:0.30000001;stroke-miterlimit:4;stroke-dasharray:none;stroke-opacity:1"
       id="path891-7-8-8"
       cx="27.239355"
       cy="24.57056"
       rx="0.66145831"
       ry="1.3229166" />
    <ellipse
       style="fill:#ff6600;stroke:#000000;stroke-width:0.30000001;stroke-miterlimit:4;stroke-dasharray:none;stroke-opacity:1"
       id="path891-1-1-20"
       cx="32.531017"
       cy="24.57056"
       rx="0.66145831"
       ry="1.3229166" />
    <ellipse
       style="fill:#ff6600;stroke:#000000;stroke-width:0.30000001;stroke-miterlimit:4;stroke-dasharray:none;stroke-opacity:1"
       id="path891-5-8-4"
       cx="37.822697"
       cy="24.57056"
       rx="0.66145831"
       ry="1.3229166" />
    <ellipse
       style="fill:#ff6600;stroke:#000000;stroke-width:0.30000001;stroke-miterlimit:4;stroke-dasharray:none;stroke-opacity:1"
       id="path891-0-2-9"
       cx="43.114346"
       cy="24.57056"
       rx="0.66145831"
       ry="1.3229166" />
    <ellipse
       style="fill:#ff6600;stroke:#000000;stroke-width:0.30000001;stroke-miterlimit:4;stroke-dasharray:none;stroke-opacity:1"
       id="path891-55-21"
       cx="6.0726523"
       cy="43.091377"
       rx="0.66145831"
       ry="1.3229166" />
    <ellipse
       style="fill:#ff6600;stroke:#000000;stroke-width:0.30000001;stroke-miterlimit:4;stroke-dasharray:none;stroke-opacity:1"
       id="path891-3-5-6"
       cx="11.364316"
       cy="43.091393"
       rx="0.66145831"
       ry="1.3229166" />
    <ellipse
       style="fill:#ff6600;stroke:#000000;stroke-width:0.30000001;stroke-miterlimit:4;stroke-dasharray:none;stroke-opacity:1"
       id="path891-2-9-2"
       cx="16.655989"
       cy="43.091393"
       rx="0.66145831"
       ry="1.3229166" />
    <ellipse
       style="fill:#ff6600;stroke:#000000;stroke-width:0.30000001;stroke-miterlimit:4;stroke-dasharray:none;stroke-opacity:1"
       id="path891-38-1-1"
       cx="21.947676"
       cy="43.091393"
       rx="0.66145831"
       ry="1.3229166" />
    <ellipse
       style="fill:#ff6600;stroke:#000000;stroke-width:0.30000001;stroke-miterlimit:4;stroke-dasharray:none;stroke-opacity:1"
       id="path891-7-8-81"
       cx="27.239355"
       cy="43.091393"
       rx="0.66145831"
       ry="1.3229166" />
    <ellipse
       style="fill:#ff6600;stroke:#000000;stroke-width:0.30000001;stroke-miterlimit:4;stroke-dasharray:none;stroke-opacity:1"
       id="path891-1-1-25"
       cx="32.531017"
       cy="43.091393"
       rx="0.66145831"
       ry="1.3229166" />
    <ellipse
       style="fill:#ff6600;stroke:#000000;stroke-width:0.30000001;stroke-miterlimit:4;stroke-dasharray:none;stroke-opacity:1"
       id="path891-5-8-5"
       cx="37.822697"
       cy="43.091393"
       rx="0.66145831"
       ry="1.3229166" />
    <ellipse
       style="fill:#ff6600;stroke:#000000;stroke-width:0.30000001;stroke-miterlimit:4;stroke-dasharray:none;stroke-opacity:1"
       id="path891-0-2-8"
       cx="43.114346"
       cy="43.091393"
       rx="0.66145831"
       ry="1.3229166" />
    <rect
       style="fill:#aa87de;stroke:#000000;stroke-width:0.28297481;stroke-miterlimit:4;stroke-dasharray:none;stroke-opacity:1"
       id="rect815-4-0-8"
       width="43.65625"
       height="7.7643151"
       x="67.46875"
       y="24.479166" />
    <ellipse
       style="fill:#aad400;stroke:#000000;stroke-width:0.30000001;stroke-miterlimit:4;stroke-dasharray:none;stroke-opacity:1"
       id="path891-55-7"
       cx="70.895569"
       cy="24.305979"
       rx="0.66145831"
       ry="1.3229166" />
    <ellipse
       style="fill:#aad400;stroke:#000000;stroke-width:0.30000001;stroke-miterlimit:4;stroke-dasharray:none;stroke-opacity:1"
       id="path891-3-5-4"
       cx="76.187241"
       cy="24.30599"
       rx="0.66145831"
       ry="1.3229166" />
    <ellipse
       style="fill:#aad400;stroke:#000000;stroke-width:0.30000001;stroke-miterlimit:4;stroke-dasharray:none;stroke-opacity:1"
       id="path891-2-9-43"
       cx="81.478912"
       cy="24.30599"
       rx="0.66145831"
       ry="1.3229166" />
    <ellipse
       style="fill:#aad400;stroke:#000000;stroke-width:0.30000001;stroke-miterlimit:4;stroke-dasharray:none;stroke-opacity:1"
       id="path891-38-1-4"
       cx="86.770569"
       cy="24.30599"
       rx="0.66145831"
       ry="1.3229166" />
    <ellipse
       style="fill:#aad400;stroke:#000000;stroke-width:0.30000001;stroke-miterlimit:4;stroke-dasharray:none;stroke-opacity:1"
       id="path891-7-8-4"
       cx="92.062233"
       cy="24.30599"
       rx="0.66145831"
       ry="1.3229166" />
    <ellipse
       style="fill:#aad400;stroke:#000000;stroke-width:0.30000001;stroke-miterlimit:4;stroke-dasharray:none;stroke-opacity:1"
       id="path891-1-1-6"
       cx="97.353912"
       cy="24.30599"
       rx="0.66145831"
       ry="1.3229166" />
    <ellipse
       style="fill:#aad400;stroke:#000000;stroke-width:0.30000001;stroke-miterlimit:4;stroke-dasharray:none;stroke-opacity:1"
       id="path891-5-8-1"
       cx="102.6456"
       cy="24.30599"
       rx="0.66145831"
       ry="1.3229166" />
    <ellipse
       style="fill:#aad400;stroke:#000000;stroke-width:0.30000001;stroke-miterlimit:4;stroke-dasharray:none;stroke-opacity:1"
       id="path891-0-2-5"
       cx="107.93723"
       cy="24.30599"
       rx="0.66145831"
       ry="1.3229166" />
    <ellipse
       style="fill:#aad400;stroke:#000000;stroke-width:0.30000001;stroke-miterlimit:4;stroke-dasharray:none;stroke-opacity:1"
       id="path891-55-8-2"
       cx="70.895569"
       cy="32.243481"
       rx="0.66145831"
       ry="1.3229166" />
    <ellipse
       style="fill:#aad400;stroke:#000000;stroke-width:0.30000001;stroke-miterlimit:4;stroke-dasharray:none;stroke-opacity:1"
       id="path891-3-5-5-9"
       cx="76.187241"
       cy="32.243492"
       rx="0.66145831"
       ry="1.3229166" />
    <ellipse
       style="fill:#aad400;stroke:#000000;stroke-width:0.30000001;stroke-miterlimit:4;stroke-dasharray:none;stroke-opacity:1"
       id="path891-2-9-5-8"
       cx="81.478912"
       cy="32.243492"
       rx="0.66145831"
       ry="1.3229166" />
    <ellipse
       style="fill:#aad400;stroke:#000000;stroke-width:0.30000001;stroke-miterlimit:4;stroke-dasharray:none;stroke-opacity:1"
       id="path891-38-1-6-1"
       cx="86.770599"
       cy="32.243492"
       rx="0.66145831"
       ry="1.3229166" />
    <ellipse
       style="fill:#aad400;stroke:#000000;stroke-width:0.30000001;stroke-miterlimit:4;stroke-dasharray:none;stroke-opacity:1"
       id="path891-7-8-3-1"
       cx="92.062279"
       cy="32.243492"
       rx="0.66145831"
       ry="1.3229166" />
    <ellipse
       style="fill:#aad400;stroke:#000000;stroke-width:0.30000001;stroke-miterlimit:4;stroke-dasharray:none;stroke-opacity:1"
       id="path891-1-1-8-7"
       cx="97.353943"
       cy="32.243492"
       rx="0.66145831"
       ry="1.3229166" />
    <ellipse
       style="fill:#aad400;stroke:#000000;stroke-width:0.30000001;stroke-miterlimit:4;stroke-dasharray:none;stroke-opacity:1"
       id="path891-5-8-0-2"
       cx="102.64562"
       cy="32.243492"
       rx="0.66145831"
       ry="1.3229166" />
    <ellipse
       style="fill:#aad400;stroke:#000000;stroke-width:0.30000001;stroke-miterlimit:4;stroke-dasharray:none;stroke-opacity:1"
       id="path891-0-2-2-8"
       cx="107.93728"
       cy="32.243492"
       rx="0.66145831"
       ry="1.3229166" />
    <rect
       style="fill:#87aade;stroke:#000000;stroke-width:0.28336194;stroke-miterlimit:4;stroke-dasharray:none;stroke-opacity:1"
       id="rect815-4-1"
       width="43.775784"
       height="7.7643151"
       x="132.29167"
       y="5.9583378" />
    <ellipse
       style="fill:#aad400;stroke:#000000;stroke-width:0.30000001;stroke-miterlimit:4;stroke-dasharray:none;stroke-opacity:1"
       id="path891-3-5-3"
       cx="135.71849"
       cy="13.722666"
       rx="0.66145831"
       ry="1.3229166" />
    <ellipse
       style="fill:#aad400;stroke:#000000;stroke-width:0.30000001;stroke-miterlimit:4;stroke-dasharray:none;stroke-opacity:1"
       id="path891-2-9-7"
       cx="141.01016"
       cy="13.722666"
       rx="0.66145831"
       ry="1.3229166" />
    <ellipse
       style="fill:#aad400;stroke:#000000;stroke-width:0.30000001;stroke-miterlimit:4;stroke-dasharray:none;stroke-opacity:1"
       id="path891-38-1-2"
       cx="146.30183"
       cy="13.722666"
       rx="0.66145831"
       ry="1.3229166" />
    <ellipse
       style="fill:#aad400;stroke:#000000;stroke-width:0.30000001;stroke-miterlimit:4;stroke-dasharray:none;stroke-opacity:1"
       id="path891-7-8-7"
       cx="151.59351"
       cy="13.722666"
       rx="0.66145831"
       ry="1.3229166" />
    <ellipse
       style="fill:#aad400;stroke:#000000;stroke-width:0.30000001;stroke-miterlimit:4;stroke-dasharray:none;stroke-opacity:1"
       id="path891-1-1-1"
       cx="156.88516"
       cy="13.722666"
       rx="0.66145831"
       ry="1.3229166" />
    <ellipse
       style="fill:#aad400;stroke:#000000;stroke-width:0.30000001;stroke-miterlimit:4;stroke-dasharray:none;stroke-opacity:1"
       id="path891-5-8-7"
       cx="162.17683"
       cy="13.722666"
       rx="0.66145831"
       ry="1.3229166" />
    <ellipse
       style="fill:#aad400;stroke:#000000;stroke-width:0.30000001;stroke-miterlimit:4;stroke-dasharray:none;stroke-opacity:1"
       id="path891-0-2-1"
       cx="167.46849"
       cy="13.722666"
       rx="0.66145831"
       ry="1.3229166" />
    <ellipse
       style="fill:#aad400;stroke:#000000;stroke-width:0.30000001;stroke-miterlimit:4;stroke-dasharray:none;stroke-opacity:1"
       id="path891-52-0-04"
       cx="172.76016"
       cy="13.722666"
       rx="0.66145831"
       ry="1.3229166" />
    <rect
       style="fill:#87aade;stroke:#000000;stroke-width:0.28336194;stroke-miterlimit:4;stroke-dasharray:none;stroke-opacity:1"
       id="rect815-4-0-9"
       width="43.775784"
       height="7.7643151"
       x="132.29167"
       y="24.479166" />
    <ellipse
       style="fill:#aad400;stroke:#000000;stroke-width:0.30000001;stroke-miterlimit:4;stroke-dasharray:none;stroke-opacity:1"
       id="path891-3-5-5-2"
       cx="135.71849"
       cy="32.243484"
       rx="0.66145831"
       ry="1.3229166" />
    <ellipse
       style="fill:#aad400;stroke:#000000;stroke-width:0.30000001;stroke-miterlimit:4;stroke-dasharray:none;stroke-opacity:1"
       id="path891-2-9-5-1"
       cx="141.01016"
       cy="32.243484"
       rx="0.66145831"
       ry="1.3229166" />
    <ellipse
       style="fill:#aad400;stroke:#000000;stroke-width:0.30000001;stroke-miterlimit:4;stroke-dasharray:none;stroke-opacity:1"
       id="path891-38-1-6-9"
       cx="146.30185"
       cy="32.243484"
       rx="0.66145831"
       ry="1.3229166" />
    <ellipse
       style="fill:#aad400;stroke:#000000;stroke-width:0.30000001;stroke-miterlimit:4;stroke-dasharray:none;stroke-opacity:1"
       id="path891-7-8-3-6"
       cx="151.59354"
       cy="32.243484"
       rx="0.66145831"
       ry="1.3229166" />
    <ellipse
       style="fill:#aad400;stroke:#000000;stroke-width:0.30000001;stroke-miterlimit:4;stroke-dasharray:none;stroke-opacity:1"
       id="path891-1-1-8-0"
       cx="156.88519"
       cy="32.243484"
       rx="0.66145831"
       ry="1.3229166" />
    <ellipse
       style="fill:#aad400;stroke:#000000;stroke-width:0.30000001;stroke-miterlimit:4;stroke-dasharray:none;stroke-opacity:1"
       id="path891-5-8-0-7"
       cx="162.17688"
       cy="32.243484"
       rx="0.66145831"
       ry="1.3229166" />
    <ellipse
       style="fill:#aad400;stroke:#000000;stroke-width:0.30000001;stroke-miterlimit:4;stroke-dasharray:none;stroke-opacity:1"
       id="path891-0-2-2-0"
       cx="167.46852"
       cy="32.243484"
       rx="0.66145831"
       ry="1.3229166" />
    <ellipse
       style="fill:#aad400;stroke:#000000;stroke-width:0.30000001;stroke-miterlimit:4;stroke-dasharray:none;stroke-opacity:1"
       id="path891-52-0-1-4"
       cx="172.76021"
       cy="32.243484"
       rx="0.66145831"
       ry="1.3229166" />
    <rect
       style="fill:#87aade;stroke:#000000;stroke-width:0.28336194;stroke-miterlimit:4;stroke-dasharray:none;stroke-opacity:1"
       id="rect815-4-3-5"
       width="43.775784"
       height="7.7643151"
       x="132.29167"
       y="43" />
    <ellipse
       style="fill:#aad400;stroke:#000000;stroke-width:0.30000001;stroke-miterlimit:4;stroke-dasharray:none;stroke-opacity:1"
       id="path891-3-5-2-5"
       cx="135.71849"
       cy="24.570566"
       rx="0.66145831"
       ry="1.3229166" />
    <ellipse
       style="fill:#aad400;stroke:#000000;stroke-width:0.30000001;stroke-miterlimit:4;stroke-dasharray:none;stroke-opacity:1"
       id="path891-2-9-4-2"
       cx="141.01016"
       cy="24.570566"
       rx="0.66145831"
       ry="1.3229166" />
    <ellipse
       style="fill:#aad400;stroke:#000000;stroke-width:0.30000001;stroke-miterlimit:4;stroke-dasharray:none;stroke-opacity:1"
       id="path891-38-1-63-6"
       cx="146.30185"
       cy="24.570566"
       rx="0.66145831"
       ry="1.3229166" />
    <ellipse
       style="fill:#aad400;stroke:#000000;stroke-width:0.30000001;stroke-miterlimit:4;stroke-dasharray:none;stroke-opacity:1"
       id="path891-7-8-8-7"
       cx="151.59354"
       cy="24.570566"
       rx="0.66145831"
       ry="1.3229166" />
    <ellipse
       style="fill:#aad400;stroke:#000000;stroke-width:0.30000001;stroke-miterlimit:4;stroke-dasharray:none;stroke-opacity:1"
       id="path891-1-1-20-7"
       cx="156.88519"
       cy="24.570566"
       rx="0.66145831"
       ry="1.3229166" />
    <ellipse
       style="fill:#aad400;stroke:#000000;stroke-width:0.30000001;stroke-miterlimit:4;stroke-dasharray:none;stroke-opacity:1"
       id="path891-5-8-4-9"
       cx="162.17688"
       cy="24.570566"
       rx="0.66145831"
       ry="1.3229166" />
    <ellipse
       style="fill:#aad400;stroke:#000000;stroke-width:0.30000001;stroke-miterlimit:4;stroke-dasharray:none;stroke-opacity:1"
       id="path891-0-2-9-1"
       cx="167.46852"
       cy="24.570566"
       rx="0.66145831"
       ry="1.3229166" />
    <ellipse
       style="fill:#aad400;stroke:#000000;stroke-width:0.30000001;stroke-miterlimit:4;stroke-dasharray:none;stroke-opacity:1"
       id="path891-52-0-0-2"
       cx="172.76021"
       cy="24.570566"
       rx="0.66145831"
       ry="1.3229166" />
    <ellipse
       style="fill:#aad400;stroke:#000000;stroke-width:0.30000001;stroke-miterlimit:4;stroke-dasharray:none;stroke-opacity:1"
       id="path891-3-5-6-1"
       cx="135.71849"
       cy="43.0914"
       rx="0.66145831"
       ry="1.3229166" />
    <ellipse
       style="fill:#aad400;stroke:#000000;stroke-width:0.30000001;stroke-miterlimit:4;stroke-dasharray:none;stroke-opacity:1"
       id="path891-2-9-2-0"
       cx="141.01016"
       cy="43.0914"
       rx="0.66145831"
       ry="1.3229166" />
    <ellipse
       style="fill:#aad400;stroke:#000000;stroke-width:0.30000001;stroke-miterlimit:4;stroke-dasharray:none;stroke-opacity:1"
       id="path891-38-1-1-0"
       cx="146.30185"
       cy="43.0914"
       rx="0.66145831"
       ry="1.3229166" />
    <ellipse
       style="fill:#aad400;stroke:#000000;stroke-width:0.30000001;stroke-miterlimit:4;stroke-dasharray:none;stroke-opacity:1"
       id="path891-7-8-81-7"
       cx="151.59354"
       cy="43.0914"
       rx="0.66145831"
       ry="1.3229166" />
    <ellipse
       style="fill:#aad400;stroke:#000000;stroke-width:0.30000001;stroke-miterlimit:4;stroke-dasharray:none;stroke-opacity:1"
       id="path891-1-1-25-7"
       cx="156.88519"
       cy="43.0914"
       rx="0.66145831"
       ry="1.3229166" />
    <ellipse
       style="fill:#aad400;stroke:#000000;stroke-width:0.30000001;stroke-miterlimit:4;stroke-dasharray:none;stroke-opacity:1"
       id="path891-5-8-5-8"
       cx="162.17688"
       cy="43.0914"
       rx="0.66145831"
       ry="1.3229166" />
    <ellipse
       style="fill:#aad400;stroke:#000000;stroke-width:0.30000001;stroke-miterlimit:4;stroke-dasharray:none;stroke-opacity:1"
       id="path891-0-2-8-0"
       cx="167.46852"
       cy="43.0914"
       rx="0.66145831"
       ry="1.3229166" />
    <ellipse
       style="fill:#aad400;stroke:#000000;stroke-width:0.30000001;stroke-miterlimit:4;stroke-dasharray:none;stroke-opacity:1"
       id="path891-52-0-7-0"
       cx="172.76021"
       cy="43.0914"
       rx="0.66145831"
       ry="1.3229166" />
    <path
       style="fill:#666666;fill-opacity:1;stroke:#000000;stroke-width:0.26458332px;stroke-linecap:butt;stroke-linejoin:miter;stroke-opacity:1"
       d="m 52.916667,24.479167 h 3.96875 v -5.291666 l 5.291666,9.260418 -5.291666,9.260416 v -5.291666 h -3.96875 z"
       id="path1629"
       inkscape:connector-curvature="0" />
    <path
       style="fill:#666666;fill-opacity:1;stroke:#000000;stroke-width:0.26458332px;stroke-linecap:butt;stroke-linejoin:miter;stroke-opacity:1"
       d="m 117.73958,24.479167 h 3.96875 V 19.187501 L 127,28.447919 l -5.29167,9.260416 v -5.291666 h -3.96875 z"
       id="path1629-1"
       inkscape:connector-curvature="0" />
    <flowRoot
       xml:space="preserve"
       id="flowRoot1661"
       style="font-style:normal;font-weight:normal;font-size:21.33333397px;line-height:1.25;font-family:sans-serif;letter-spacing:0px;word-spacing:0px;fill:#000000;fill-opacity:1;stroke:none"
       transform="matrix(0.26458333,0,0,0.26458333,-2.4956542,0.81665681)"><flowRegion
         id="flowRegion1663"><rect
           id="rect1665"
           width="120"
           height="85"
           x="64.432396"
           y="249.43306" /></flowRegion><flowPara
         id="flowPara1667"></flowPara></flowRoot>    <flowRoot
       xml:space="preserve"
       id="flowRoot1677"
       style="font-style:normal;font-weight:normal;font-size:21.33333397px;line-height:1.25;font-family:sans-serif;letter-spacing:0px;word-spacing:0px;fill:#000000;fill-opacity:1;stroke:none"
       transform="matrix(0.26458333,0,0,0.26458333,-2.4956542,0.81665681)"><flowRegion
         id="flowRegion1679"><rect
           id="rect1681"
           width="325"
           height="155"
           x="-55.567608"
           y="234.43306" /></flowRegion><flowPara
         id="flowPara1683"></flowPara></flowRoot>    <text
       xml:space="preserve"
       style="font-style:normal;font-weight:normal;font-size:5.64444447px;line-height:1.25;font-family:sans-serif;letter-spacing:0px;word-spacing:0px;fill:#000000;fill-opacity:1;stroke:none;stroke-width:0.26458332"
       x="6.6145825"
       y="21.833323"
       id="text1689"><tspan
         sodipodi:role="line"
         id="tspan1687"
         x="6.6145825"
         y="26.98292"
         style="font-size:3.52777767px;stroke-width:0.26458332" /></text>
    <flowRoot
       xml:space="preserve"
       id="flowRoot1691"
       style="font-style:normal;font-weight:normal;font-size:21.33333397px;line-height:1.25;font-family:sans-serif;letter-spacing:0px;word-spacing:0px;fill:#000000;fill-opacity:1;stroke:none"
       transform="matrix(0.26458333,0,0,0.26458333,-2.4956542,0.81665681)"><flowRegion
         id="flowRegion1693"><rect
           id="rect1695"
           width="305"
           height="60"
           x="-10.567607"
           y="194.43306" /></flowRegion><flowPara
         id="flowPara1697"></flowPara></flowRoot>    <flowRoot
       xml:space="preserve"
       id="flowRoot1699"
       style="font-style:normal;font-weight:normal;font-size:21.33333397px;line-height:1.25;font-family:sans-serif;letter-spacing:0px;word-spacing:0px;fill:#000000;fill-opacity:1;stroke:none"
       transform="matrix(0.26458333,0,0,0.26458333,-2.4956542,0.81665681)"><flowRegion
         id="flowRegion1701"><rect
           id="rect1703"
           width="430"
           height="45"
           x="-30.567608"
           y="209.43306" /></flowRegion><flowPara
         id="flowPara1705"></flowPara></flowRoot>    <text
       xml:space="preserve"
       style="font-style:normal;font-weight:normal;font-size:6.3499999px;line-height:0.69999999;font-family:sans-serif;text-align:center;letter-spacing:0px;word-spacing:0px;text-anchor:middle;fill:#000000;fill-opacity:1;stroke:none;stroke-width:0.26458332"
       x="154.1188"
       y="58.817535"
       id="text1793"><tspan
         sodipodi:role="line"
         x="154.1188"
         y="58.817535"
         style="font-size:3.52777767px;line-height:0.69999999;text-align:center;text-anchor:middle;stroke-width:0.26458332"
         id="tspan1795">Submodels are solved</tspan><tspan
         sodipodi:role="line"
         x="154.1188"
         y="63.262535"
         style="font-size:3.52777767px;line-height:0.69999999;text-align:center;text-anchor:middle;stroke-width:0.26458332"
         id="tspan1809">independently with fixed</tspan><tspan
         sodipodi:role="line"
         x="154.1188"
         y="67.707535"
         style="font-size:3.52777767px;line-height:0.69999999;text-align:center;text-anchor:middle;stroke-width:0.26458332"
         id="tspan1872">interface variables</tspan></text>
    <text
       xml:space="preserve"
       style="font-style:normal;font-weight:normal;font-size:6.3499999px;line-height:0.69999999;font-family:sans-serif;text-align:center;letter-spacing:0px;word-spacing:0px;text-anchor:middle;fill:#000000;fill-opacity:1;stroke:none;stroke-width:0.26458332"
       x="24.461729"
       y="58.817532"
       id="text1793-4"><tspan
         sodipodi:role="line"
         x="24.461729"
         y="58.817532"
         style="font-size:3.52777767px;line-height:0.69999999;text-align:center;text-anchor:middle;stroke-width:0.26458332"
         id="tspan1809-6">Submodels exist as independent</tspan><tspan
         sodipodi:role="line"
         x="24.461729"
         y="63.262531"
         style="font-size:3.52777767px;line-height:0.69999999;text-align:center;text-anchor:middle;stroke-width:0.26458332"
         id="tspan1900">RTC-Tools models with values of</tspan><tspan
         sodipodi:role="line"
         x="25.081846"
         y="67.707535"
         style="font-size:3.52777767px;line-height:0.69999999;text-align:center;text-anchor:middle;stroke-width:0.26458332"
         id="tspan1904">interface variables unfixed </tspan></text>
    <text
       xml:space="preserve"
       style="font-style:normal;font-weight:normal;font-size:6.3499999px;line-height:0.69999999;font-family:sans-serif;text-align:center;letter-spacing:0px;word-spacing:0px;text-anchor:middle;fill:#000000;fill-opacity:1;stroke:none;stroke-width:0.26458332"
       x="89.526749"
       y="58.806286"
       id="text1793-46"><tspan
         sodipodi:role="line"
         x="89.526749"
         y="58.806286"
         style="font-size:3.52777767px;line-height:0.69999999;text-align:center;text-anchor:middle;stroke-width:0.26458332"
         id="tspan1854">Submodels are aggregated</tspan><tspan
         sodipodi:role="line"
         x="89.526749"
         y="63.251286"
         style="font-size:3.52777767px;line-height:0.69999999;text-align:center;text-anchor:middle;stroke-width:0.26458332"
         id="tspan1878">into one model and interface</tspan><tspan
         sodipodi:role="line"
         x="89.526749"
         y="67.696289"
         style="font-size:3.52777767px;line-height:0.69999999;text-align:center;text-anchor:middle;stroke-width:0.26458332"
         id="tspan1882">variables are resolved and fixed</tspan></text>
    <text
       xml:space="preserve"
       style="font-style:normal;font-weight:normal;font-size:6.3499999px;line-height:0.69999999;font-family:sans-serif;text-align:start;letter-spacing:0px;word-spacing:0px;text-anchor:start;fill:#000000;fill-opacity:1;stroke:none;stroke-width:0.26458332"
       x="57.138405"
       y="10.932933"
       id="text1793-46-3"><tspan
         sodipodi:role="line"
         x="57.138405"
         y="10.932933"
         style="font-style:italic;font-variant:normal;font-weight:normal;font-stretch:normal;font-size:2.82222223px;line-height:0.69999999;font-family:sans-serif;-inkscape-font-specification:'sans-serif Italic';text-align:start;text-anchor:start;stroke-width:0.26458332"
         id="tspan1935">shared interface variable at a timestep</tspan></text>
    <flowRoot
       xml:space="preserve"
       id="flowRoot1947"
       style="font-style:normal;font-weight:normal;font-size:21.33333397px;line-height:1.25;font-family:sans-serif;letter-spacing:0px;word-spacing:0px;fill:#000000;fill-opacity:1;stroke:none"
       transform="matrix(0.26458333,0,0,0.26458333,-37.967973,-24.183343)"><flowRegion
         id="flowRegion1949"><rect
           id="rect1951"
           width="110"
           height="60"
           x="443.50101"
           y="33.921253" /></flowRegion><flowPara
         id="flowPara1953"></flowPara></flowRoot>    <path
       style="fill:none;stroke:#000000;stroke-width:0.26458332px;stroke-linecap:butt;stroke-linejoin:miter;stroke-opacity:1"
       d="M 55.562501,11.249994 43.127084,19.187489"
       id="path1955"
       inkscape:connector-curvature="0"
       sodipodi:nodetypes="cc" />
    <path
       style="fill:none;stroke:#000000;stroke-width:0.26499999;stroke-linecap:butt;stroke-linejoin:miter;stroke-miterlimit:4;stroke-dasharray:none;stroke-opacity:1;marker-start:url(#Arrow1Mstart);marker-end:url(#marker3193)"
       d="m 43.127084,16.012489 v 6.35"
       id="path1957"
       inkscape:connector-curvature="0"
       sodipodi:nodetypes="cc" />
  </g>
</svg>
