time,Inflow_Q,Outflow_Q,Storage.V,Storage_V,incurred_damage,violation_Storage.V_Storage.V_min_Storage.V_max
2013-01-01 01:00:00,0.000000,0.000000,30000.000000,30000.000000,-0.000000,0.000063
2013-01-01 02:00:00,0.750000,0.700000,30179.999997,30179.999997,-0.015000,0.014999
2013-01-01 03:00:00,0.750000,0.700000,30359.999993,30359.999993,-0.030000,0.029999
2013-01-01 04:00:00,0.750000,0.700000,30539.999990,30539.999990,-0.045000,0.044999
2013-01-01 05:00:00,0.750000,0.700000,30719.999986,30719.999986,-0.060000,0.059999
2013-01-01 06:00:00,0.750000,0.700000,30899.999983,30899.999983,-0.075000,0.074999
2013-01-01 07:00:00,0.750000,0.700000,31079.999979,31079.999979,-0.090000,0.089999
2013-01-01 08:00:00,0.750000,0.700000,31259.999976,31259.999976,-0.105000,0.104999
2013-01-01 09:00:00,0.750000,0.700000,31439.999972,31439.999972,-0.120000,0.119999
2013-01-01 10:00:00,0.750000,0.700000,31619.999969,31619.999969,-0.135000,0.134999
2013-01-01 11:00:00,0.750000,0.700000,31799.999965,31799.999965,-0.150000,0.149999
2013-01-01 12:00:00,0.750000,0.700000,31979.999962,31979.999962,-0.165000,0.164999
2013-01-01 13:00:00,0.750000,0.700000,32159.999958,32159.999958,-0.180000,0.179999
2013-01-01 14:00:00,0.750000,0.700000,32339.999955,32339.999955,-0.195000,0.194999
2013-01-01 15:00:00,0.750000,0.700000,32519.999951,32519.999951,-0.210000,0.209999
2013-01-01 16:00:00,0.750000,0.700000,32699.999948,32699.999948,-0.225000,0.224999
2013-01-01 17:00:00,0.750000,0.700000,32879.999944,32879.999944,-0.240000,0.239999
2013-01-01 18:00:00,0.750000,0.700000,33059.999941,33059.999941,-0.255000,0.254999
2013-01-01 19:00:00,0.750000,0.700000,33239.999937,33239.999937,-0.270000,0.269999
2013-01-01 20:00:00,0.750000,0.700000,33419.999934,33419.999934,-0.285000,0.284999
2013-01-01 21:00:00,0.750000,0.700000,33599.999930,33599.999930,-0.300000,0.299999
2013-01-01 22:00:00,0.750000,0.700000,33779.999927,33779.999927,-0.315000,0.314999
2013-01-01 23:00:00,0.750000,0.700000,33959.999923,33959.999923,-0.330000,0.329999
2013-01-02 00:00:00,0.750000,0.700000,34139.999920,34139.999920,-0.345000,0.344999
2013-01-02 01:00:00,0.750000,0.700000,34319.999916,34319.999916,-0.360000,0.359999
2013-01-02 02:00:00,0.750000,0.700000,34499.999913,34499.999913,-0.375000,0.374999
2013-01-02 03:00:00,0.750000,0.700000,34679.999909,34679.999909,-0.390000,0.389999
2013-01-02 04:00:00,0.750000,0.700000,34859.999906,34859.999906,-0.405000,0.404999
2013-01-02 05:00:00,0.750000,0.700000,35039.999902,35039.999902,-0.420000,0.419999
2013-01-02 06:00:00,0.750000,0.700000,35219.999899,35219.999899,-0.435000,0.434999
2013-01-02 07:00:00,0.750000,0.700000,35399.999895,35399.999895,-0.450000,0.449999
2013-01-02 08:00:00,0.750000,0.700000,35579.999892,35579.999892,-0.465000,0.464999
2013-01-02 09:00:00,0.750000,0.700000,35759.999888,35759.999888,-0.480000,0.479999
2013-01-02 10:00:00,0.750000,0.700000,35939.999885,35939.999885,-0.495000,0.494999
2013-01-02 11:00:00,0.750000,0.700000,36119.999882,36119.999882,-0.510000,0.509999
2013-01-02 12:00:00,0.750000,0.700000,36299.999878,36299.999878,-0.525000,0.524999
2013-01-02 13:00:00,0.750000,0.700000,36479.999875,36479.999875,-0.540000,0.539999
2013-01-02 14:00:00,0.750000,0.700000,36659.999871,36659.999871,-0.555000,0.554999
2013-01-02 15:00:00,0.750000,0.700000,36839.999868,36839.999868,-0.570000,0.569999
2013-01-02 16:00:00,0.750000,0.700000,37019.999865,37019.999865,-0.585000,0.584999
2013-01-02 17:00:00,0.750000,0.700000,37199.999861,37199.999861,-0.600000,0.599999
2013-01-02 18:00:00,0.750000,0.700000,37379.999858,37379.999858,-0.615000,0.614999
2013-01-02 19:00:00,0.750000,0.700000,37559.999855,37559.999855,-0.630000,0.629999
2013-01-02 20:00:00,0.750000,0.700000,37739.999852,37739.999852,-0.645000,0.644999
2013-01-02 21:00:00,0.750000,0.700000,37919.999849,37919.999849,-0.660000,0.659999
2013-01-02 22:00:00,0.750000,0.700000,38099.999846,38099.999846,-0.675000,0.674999
2013-01-02 23:00:00,0.750000,0.700000,38279.999843,38279.999843,-0.690000,0.689999
2013-01-03 00:00:00,0.750000,0.700000,38459.999837,38459.999837,-0.705000,0.704999
