time,Inflow_Q,Outflow_Q,Storage.V,Storage_V,incurred_damage,violation_Storage.V_Storage.V_min_Storage.V_max
2013-01-01 01:00:00,0.000000,0.000000,30000.000000,30000.000000,-0.000000,0.000063
2013-01-01 02:00:00,0.841670,0.788894,30189.995800,30189.995800,-0.015833,0.015832
2013-01-01 03:00:00,0.836420,0.781893,30386.292159,30386.292159,-0.032191,0.032190
2013-01-01 04:00:00,0.835219,0.780292,30584.029290,30584.029290,-0.048669,0.048668
2013-01-01 05:00:00,0.835036,0.780047,30781.986542,30781.986542,-0.065166,0.065165
2013-01-01 06:00:00,0.835007,0.780009,30979.978228,30979.978228,-0.081665,0.081664
2013-01-01 07:00:00,0.835002,0.780003,31177.975814,31177.975814,-0.098165,0.098164
2013-01-01 08:00:00,0.835001,0.780001,31375.974492,31375.974492,-0.114665,0.114664
2013-01-01 09:00:00,0.835001,0.780001,31573.973370,31573.973370,-0.131164,0.131164
2013-01-01 10:00:00,0.835001,0.780001,31771.972270,31771.972270,-0.147664,0.147664
2013-01-01 11:00:00,0.835001,0.780001,31969.971152,31969.971152,-0.164164,0.164163
2013-01-01 12:00:00,0.835001,0.780001,32167.970004,32167.970004,-0.180664,0.180663
2013-01-01 13:00:00,0.835001,0.780001,32365.968824,32365.968824,-0.197164,0.197163
2013-01-01 14:00:00,0.835001,0.780001,32563.967609,32563.967609,-0.213664,0.213663
2013-01-01 15:00:00,0.835001,0.780001,32761.966356,32761.966356,-0.230164,0.230163
2013-01-01 16:00:00,0.835001,0.780001,32959.965063,32959.965063,-0.246664,0.246663
2013-01-01 17:00:00,0.835001,0.780001,33157.963726,33157.963726,-0.263164,0.263163
2013-01-01 18:00:00,0.835001,0.780002,33355.962345,33355.962345,-0.279664,0.279663
2013-01-01 19:00:00,0.835001,0.780002,33553.960915,33553.960915,-0.296163,0.296163
2013-01-01 20:00:00,0.835001,0.780002,33751.959434,33751.959434,-0.312663,0.312662
2013-01-01 21:00:00,0.835001,0.780002,33949.957898,33949.957898,-0.329163,0.329162
2013-01-01 22:00:00,0.835001,0.780002,34147.956304,34147.956304,-0.345663,0.345662
2013-01-01 23:00:00,0.835001,0.780002,34345.954649,34345.954649,-0.362163,0.362162
2013-01-02 00:00:00,0.835001,0.780002,34543.952928,34543.952928,-0.378663,0.378662
2013-01-02 01:00:00,0.835001,0.780002,34741.951138,34741.951138,-0.395163,0.395162
2013-01-02 02:00:00,0.835002,0.780002,34939.949275,34939.949275,-0.411662,0.411662
2013-01-02 03:00:00,0.835002,0.780002,35137.947334,35137.947334,-0.428162,0.428161
2013-01-02 04:00:00,0.835002,0.780002,35335.945312,35335.945312,-0.444662,0.444661
2013-01-02 05:00:00,0.835002,0.780002,35533.943204,35533.943204,-0.461162,0.461161
2013-01-02 06:00:00,0.835002,0.780002,35731.941006,35731.941006,-0.477662,0.477661
2013-01-02 07:00:00,0.835002,0.780003,35929.938714,35929.938714,-0.494162,0.494161
2013-01-02 08:00:00,0.835002,0.780003,36127.936327,36127.936327,-0.510661,0.510661
2013-01-02 09:00:00,0.835002,0.780003,36325.933843,36325.933843,-0.527161,0.527160
2013-01-02 10:00:00,0.835002,0.780003,36523.931264,36523.931264,-0.543661,0.543660
2013-01-02 11:00:00,0.835002,0.780003,36721.928594,36721.928594,-0.560161,0.560160
2013-01-02 12:00:00,0.835002,0.780003,36919.925844,36919.925844,-0.576660,0.576660
2013-01-02 13:00:00,0.835002,0.780003,37117.923035,37117.923035,-0.593160,0.593159
2013-01-02 14:00:00,0.835002,0.780003,37315.920204,37315.920204,-0.609660,0.609659
2013-01-02 15:00:00,0.835002,0.780003,37513.917414,37513.917414,-0.626160,0.626159
2013-01-02 16:00:00,0.835002,0.780003,37711.914771,37711.914771,-0.642660,0.642659
2013-01-02 17:00:00,0.835002,0.780003,37909.912439,37909.912439,-0.659159,0.659159
2013-01-02 18:00:00,0.835002,0.780002,38107.910577,38107.910577,-0.675659,0.675658
2013-01-02 19:00:00,0.835002,0.780002,38305.908707,38305.908707,-0.692159,0.692158
2013-01-02 20:00:00,0.835006,0.780008,38503.901825,38503.901825,-0.708658,0.708658
2013-01-02 21:00:00,0.835036,0.780048,38701.858752,38701.858752,-0.725155,0.725154
2013-01-02 22:00:00,0.835215,0.780286,38899.601128,38899.601128,-0.741633,0.741633
2013-01-02 23:00:00,0.836259,0.781679,39096.089838,39096.089838,-0.758007,0.758007
2013-01-03 00:00:00,0.841742,0.788990,39285.998882,39285.998882,-0.773833,0.773832
